<define-tag pagetitle>DLA-957-1 bind9</define-tag>
<define-tag report_date>2017-5-28</define-tag>
<define-tag secrefs>CVE-2017-3136 CVE-2017-3137 CVE-2017-3138</define-tag>
<define-tag packages>bind9</define-tag>
<define-tag isvulnerable>yes</define-tag>
<define-tag fixed>yes</define-tag>
<define-tag fixed-section>no</define-tag>

#use wml::debian::security

