<define-tag pagetitle>DLA-1584-1 ruby-i18n</define-tag>
<define-tag report_date>2018-11-21</define-tag>
<define-tag secrefs>CVE-2014-10077 Bug##913093</define-tag>
<define-tag packages>ruby-i18n</define-tag>
<define-tag isvulnerable>yes</define-tag>
<define-tag fixed>yes</define-tag>
<define-tag fixed-section>no</define-tag>

#use wml::debian::security

