<define-tag pagetitle>DSA-4454-1 qemu</define-tag>
<define-tag report_date>2019-5-30</define-tag>
<define-tag secrefs>CVE-2018-11806 CVE-2018-12617 CVE-2018-16872 CVE-2018-17958 CVE-2018-18849 CVE-2018-18954 CVE-2018-19364 CVE-2018-19489 CVE-2019-3812 CVE-2019-6778 CVE-2019-9824 CVE-2019-12155</define-tag>
<define-tag packages>qemu</define-tag>
<define-tag isvulnerable>yes</define-tag>
<define-tag fixed>yes</define-tag>
<define-tag fixed-section>no</define-tag>

#use wml::debian::security



</dl>
