<define-tag pagetitle>DLA-1667-1 dovecot</define-tag>
<define-tag report_date>2019-2-7</define-tag>
<define-tag secrefs>CVE-2019-3814</define-tag>
<define-tag packages>dovecot</define-tag>
<define-tag isvulnerable>yes</define-tag>
<define-tag fixed>yes</define-tag>
<define-tag fixed-section>no</define-tag>

#use wml::debian::security

