<define-tag pagetitle>DLA-1696-1 ceph</define-tag>
<define-tag report_date>2019-3-1</define-tag>
<define-tag secrefs>CVE-2018-14662 CVE-2018-16846 Bug#921948 Bug#921947</define-tag>
<define-tag packages>ceph</define-tag>
<define-tag isvulnerable>yes</define-tag>
<define-tag fixed>yes</define-tag>
<define-tag fixed-section>no</define-tag>

#use wml::debian::security

